…
```
## # A tibble: 3 × 5
##   Species    sep.len sep.wid pet.len pet.wid
##   <fct>        <dbl>   <dbl>   <dbl>   <dbl>
## 1 setosa        5.01    3.43    1.46   0.246
## 2 versicolor    5.94    2.77    4.26   1.33 
## 3 virginica     6.59    2.97    5.55   2.03
```

```
## # A tibble: 90 × 5
##    Sepal.Length Sepal.Width Petal.Length Petal.Width Species
##           <dbl>       <dbl>        <dbl>       <dbl> <fct>  
##  1          5.1         3.5          1.4         0.2 setosa 
##  2          4.9         3            1.4         0.2 setosa 
##  3          4.7         3.2          1.3         0.2 setosa 
##  4          4.6         3.1          1.5         0.2 setosa 
##  5          5           3.6          1.4         0.2 setosa 
##  6          5.4         3.9          1.7         0.4 setosa 
##  7          4.6         3.4          1.4         0.3 setosa 
##  8          5           3.4          1.5         0.2 setosa 
##  9          4.9         3.1          1.5         0.1 setosa 
## 10          5.4         3.7          1.5         0.2 setosa 
## # … with 80 more rows
```

```
## # A tibble: 150 × 6
##    Sepal.Length Sepal.Width Petal.Length Petal.Width Species Sepal.Size
##           <dbl>       <dbl>        <dbl>       <dbl> <fct>   <chr>     
##  1          5.1         3.5          1.4         0.2 setosa  medium    
##  2          4.9         3            1.4         0.2 setosa  small     
##  3          4.7         3.2          1.3         0.2 setosa  small     
##  4          4.6         3.1          1.5         0.2 setosa  small     
##  5          5           3.6          1.4         0.2 setosa  medium    
##  6          5.4         3.9          1.7         0.4 setosa  medium    
##  7          4.6         3.4          1.4         0.3 setosa  small     
##  8          5           3.4          1.5         0.2 setosa  medium    
##  9          4.4         2.9          1.4         0.2 setosa  small     
## 10          4.9         3.1          1.5         0.1 setosa  small     
## # … with 140 more rows
```

```
## # A tibble: 150 × 5
##    Sepal.Length Sepal.Width Petal.Length Petal.Width Species
##           <dbl>       <dbl>        <dbl>       <dbl> <fct>  
##  1          4.6         3.6          1           0.2 setosa 
##  2          4.3         3            1.1         0.1 setosa 
##  3          5.8         4            1.2         0.2 setosa 
##  4          5           3.2          1.2         0.2 setosa 
##  5          4.7         3.2          1.3         0.2 setosa 
##  6          5.4         3.9          1.3         0.4 setosa 
##  7          5.5         3.5          1.3         0.2 setosa 
##  8          4.4         3            1.3         0.2 setosa 
##  9          5           3.5          1.3         0.3 setosa 
## 10          4.5         2.3          1.3         0.3 setosa 
## # … with 140 more rows
```
…
